Shack ID 	Shack #	Unit Size Chosen	Unit Footprint Chosen	Building ID Chosen
4.09	9	97.2	43.2	3
4.07	7	77.76	34.56	2
4.12	12	77.76	34.56	2
4.16	16	43.2	21.6	3
4.32	32	43.2	21.6	3
4.17	17	34.56	17.28	2
4.01	1	34.56	17.28	2
4.11	11	34.56	17.28	2
4.13	13	34.56	17.28	2
4.36	36	34.56	17.28	2
4.02	2	34.56	17.28	2
4.06	6	34.56	17.28	2
4.23	23	34.56	17.28	2
4.65	65	34.56	17.28	2
4.63	63	34.56	17.28	2
4.54	54	34.56	17.28	2
4.10	10	34.56	17.28	2
4.47	47	34.56	17.28	2
4.14	14	34.56	17.28	2
4.19	19	34.56	17.28	2
4.15	15	34.56	17.28	2
4.52	52	34.56	17.28	2
4.29	29	34.56	17.28	2
4.24	24	34.56	17.28	2
4.55	55	25.92	12.96	1
4.04	4	25.92	12.96	1
4.27	27	25.92	12.96	1
4.31	31	25.92	12.96	1
4.33	33	25.92	12.96	1
4.22	22	25.92	12.96	1
4.58	58	25.92	12.96	1
4.49	49	25.92	12.96	1
4.28	28	25.92	12.96	1
4.59	59	25.92	12.96	1
4.50	50	25.92	12.96	1
4.35	35	25.92	12.96	1
4.18	18	25.92	12.96	1
4.51	51	25.92	12.96	1
4.56	56	25.92	12.96	1
4.38	38	25.92	12.96	1
4.41	41	25.92	12.96	1
4.08	8	25.92	12.96	1
4.42	42	25.92	12.96	1
4.39	39	25.92	12.96	1
4.40	40	25.92	12.96	1
4.30	30	25.92	12.96	1
4.57	57	25.92	12.96	1
4.26	26	25.92	12.96	1
4.44	44	25.92	12.96	1
4.48	48	25.92	12.96	1
4.20	20	25.92	12.96	1
4.37	37	25.92	12.96	1
4.03	3	25.92	12.96	1
4.53	53	25.92	12.96	1
4.25	25	25.92	12.96	1
4.34	34	25.92	12.96	1
4.71	71	25.92	12.96	1
4.43	43	25.92	12.96	1
4.21	21	25.92	12.96	1
4.45	45	25.92	12.96	1
4.64	64	25.92	12.96	1
4.46	46	25.92	12.96	1
4.62	62	25.92	12.96	1
4.61	61	25.92	12.96	1
4.66	66	25.92	12.96	1
4.67	67	25.92	12.96	1
4.72	72	25.92	12.96	1
4.60	60	25.92	12.96	1
4.05	5	25.92	12.96	1
4.68	68	25.92	12.96	1
4.70	70	25.92	12.96	1
4.69	69	25.92	12.96	1